<?xml version="1.0" encoding="UTF-8" standalone="no"?>
<!-- Created with Inkscape (http://www.inkscape.org/) -->

<svg
   xmlns:dc="http://purl.org/dc/elements/1.1/"
   xmlns:cc="http://creativecommons.org/ns#"
   xmlns:rdf="http://www.w3.org/1999/02/22-rdf-syntax-ns#"
   xmlns:svg="http://www.w3.org/2000/svg"
   xmlns="http://www.w3.org/2000/svg"
   xmlns:sodipodi="http://sodipodi.sourceforge.net/DTD/sodipodi-0.dtd"
   xmlns:inkscape="http://www.inkscape.org/namespaces/inkscape"
   width="744.09448819"
   height="1052.3622047"
   id="svg2"
   version="1.1"
   inkscape:version="0.48.4 r9939"
   sodipodi:docname="drawing.pdf">
  <defs
     id="defs4">
    <inkscape:path-effect
       effect="knot"
       id="path-effect3184"
       is_visible="true"
       interruption_width="3"
       prop_to_stroke_width="true"
       add_stroke_width="true"
       add_other_stroke_width="true"
       switcher_size="15"
       crossing_points_vector="-5253.1343 | 269.16034 | 0 | 0 | 0 | 0 | 0.33333588 | 1 | 1 | -5253.034 | 269.16034 | 0 | 0 | 1 | 0 | 0.33334096 | 1 | 1 | -5252.9336 | 269.16034 | 0 | 0 | 2 | 0 | 0.33334605 | 1 | 1 | -5252.8333 | 269.16034 | 0 | 0 | 3 | 0 | 0.33335114 | 1 | 1 | -5252.7329 | 269.16034 | 0 | 0 | 4 | 0 | 0.33335622 | 1 | 1 | -5252.6326 | 269.16034 | 0 | 0 | 5 | 0 | 0.33336131 | 1 | 1 | -5252.5323 | 269.16034 | 0 | 0 | 6 | 0 | 0.33336639 | 1 | 1 | -5252.4319 | 269.16034 | 0 | 0 | 7 | 0 | 0.33337148 | 1 | 1 | -5252.3316 | 269.16034 | 0 | 0 | 8 | 0 | 0.33337657 | 1 | 1 | -5252.2313 | 269.16034 | 0 | 0 | 9 | 0 | 0.33338165 | 1 | 1 | -5252.131 | 269.16034 | 0 | 0 | 10 | 0 | 0.33338674 | 1 | 1 | -5252.0306 | 269.16034 | 0 | 0 | 11 | 0 | 0.33339183 | 1 | 1 | -5251.9303 | 269.16034 | 0 | 0 | 12 | 0 | 0.33339691 | 1 | 1 | -5251.83 | 269.16034 | 0 | 0 | 13 | 0 | 0.333402 | 1 | 1 | -5251.7297 | 269.16034 | 0 | 0 | 14 | 0 | 0.33340708 | 1 | 1 | -5251.6293 | 269.16034 | 0 | 0 | 15 | 0 | 0.33341217 | 1 | 1 | -5251.529 | 269.16034 | 0 | 0 | 16 | 0 | 0.33341726 | 1 | 1 | -5251.4287 | 269.16034 | 0 | 0 | 17 | 0 | 0.33342234 | 1 | 1 | -5251.3284 | 269.16034 | 0 | 0 | 18 | 0 | 0.33342743 | 1 | 1 | -5251.2281 | 269.16034 | 0 | 0 | 19 | 0 | 0.33343252 | 1 | 1 | -5251.1278 | 269.16034 | 0 | 0 | 20 | 0 | 0.3334376 | 1 | 1 | -5251.0275 | 269.16034 | 0 | 0 | 21 | 0 | 0.33344269 | 1 | 1 | -5250.9271 | 269.16034 | 0 | 0 | 22 | 0 | 0.33344777 | 1 | 1 | -5250.8268 | 269.16034 | 0 | 0 | 23 | 0 | 0.33345286 | 1 | 1 | -5250.7265 | 269.16034 | 0 | 0 | 24 | 0 | 0.33345795 | 1 | 1 | -5250.6262 | 269.16034 | 0 | 0 | 25 | 0 | 0.33346303 | 1 | 1 | -5250.5259 | 269.16034 | 0 | 0 | 26 | 0 | 0.33346812 | 1 | 1 | -5250.4256 | 269.16034 | 0 | 0 | 27 | 0 | 0.33347321 | 1 | 1 | -5250.3253 | 269.16034 | 0 | 0 | 28 | 0 | 0.33347829 | 1 | 1 | -5250.225 | 269.16034 | 0 | 0 | 29 | 0 | 0.33348338 | 1 | 1 | -5250.1247 | 269.16034 | 0 | 0 | 30 | 0 | 0.33348846 | 1 | 1 | -5250.0244 | 269.16034 | 0 | 0 | 31 | 0 | 0.33349355 | 1 | 1 | -5249.9241 | 269.16034 | 0 | 0 | 32 | 0 | 0.33349864 | 1 | 1 | -5249.8238 | 269.16034 | 0 | 0 | 33 | 0 | 0.33350372 | 1 | 1 | -5249.7236 | 269.16034 | 0 | 0 | 34 | 0 | 0.33350881 | 1 | 1 | -5249.6233 | 269.16034 | 0 | 0 | 35 | 0 | 0.3335139 | 1 | 1 | -5249.523 | 269.16034 | 0 | 0 | 36 | 0 | 0.33351898 | 1 | 1 | -5249.4227 | 269.16034 | 0 | 0 | 37 | 0 | 0.33352407 | 1 | 1 | -5249.3224 | 269.16034 | 0 | 0 | 38 | 0 | 0.33352915 | 1 | 1 | -5249.2221 | 269.16034 | 0 | 0 | 39 | 0 | 0.33353424 | 1 | 1 | -5249.1218 | 269.16034 | 0 | 0 | 40 | 0 | 0.33353933 | 1 | 1 | -5249.0216 | 269.16034 | 0 | 0 | 41 | 0 | 0.33354441 | 1 | 1 | -5248.9213 | 269.16034 | 0 | 0 | 42 | 0 | 0.3335495 | 1 | 1 | -5248.821 | 269.16034 | 0 | 0 | 43 | 44 | 0.33355459 | 1 | 1" />
  </defs>
  <sodipodi:namedview
     id="base"
     pagecolor="#ffffff"
     bordercolor="#666666"
     borderopacity="1.0"
     inkscape:pageopacity="0.0"
     inkscape:pageshadow="2"
     inkscape:zoom="0.77245453"
     inkscape:cx="-852.76048"
     inkscape:cy="1104.145"
     inkscape:document-units="px"
     inkscape:current-layer="layer1"
     showgrid="false"
     inkscape:window-width="1366"
     inkscape:window-height="768"
     inkscape:window-x="0"
     inkscape:window-y="0"
     inkscape:window-maximized="0" />
  <metadata
     id="metadata7">
    <rdf:RDF>
      <cc:Work
         rdf:about="">
        <dc:format>image/svg+xml</dc:format>
        <dc:type
           rdf:resource="http://purl.org/dc/dcmitype/StillImage" />
        <dc:title></dc:title>
      </cc:Work>
    </rdf:RDF>
  </metadata>
  <g
     inkscape:label="Layer 1"
     inkscape:groupmode="layer"
     id="layer1">
    <path
       sodipodi:type="arc"
       style="fill:#008000;fill-rule:evenodd;stroke:#000000;stroke-width:1px;stroke-linecap:butt;stroke-linejoin:miter;stroke-opacity:1"
       id="path2985"
       sodipodi:cx="-482.85715"
       sodipodi:cy="472.36218"
       sodipodi:rx="60"
       sodipodi:ry="60"
       d="m -422.85715,472.36218 a 60,60 0 1 1 -120,0 60,60 0 1 1 120,0 z"
       transform="translate(-798.75252,-469.93057)" />
    <path
       style="fill:none;stroke:#000000;stroke-width:1.183;stroke-linecap:butt;stroke-linejoin:miter;stroke-opacity:1;stroke-miterlimit:4;stroke-dasharray:none"
       d="m -1221.382,-3.732952 c 118.6997,0 118.6997,0 118.6997,0 l 0,-0.6166168"
       id="path2989"
       inkscape:connector-curvature="0" />
    <path
       style="fill:none;stroke:#000000;stroke-width:0.383;stroke-linecap:butt;stroke-linejoin:miter;stroke-opacity:1;opacity:0;stroke-miterlimit:4;stroke-dasharray:1.149,0.383;stroke-dashoffset:0"
       d="m -495.62147,-3.7023665 c 118.69968,0 118.69968,0 118.69968,0 l 0,-0.61662"
       id="path2989-2"
       inkscape:connector-curvature="0" />
    <path
       style="fill:none;stroke:#000000;stroke-width:1.183;stroke-linecap:butt;stroke-linejoin:miter;stroke-opacity:1;stroke-miterlimit:4;stroke-dasharray:none"
       d="m -979.79238,-4.9969409 c 118.6997,0 118.6997,0 118.6997,0 l 0,-0.61662"
       id="path2989-27"
       inkscape:connector-curvature="0" />
    <path
       style="fill:none;stroke:#000000;stroke-width:1.183;stroke-linecap:butt;stroke-linejoin:miter;stroke-opacity:1;stroke-miterlimit:4;stroke-dasharray:none"
       d="m -739.0015,-3.7023707 c 118.6997,0 118.6997,0 118.6997,0 l 0,-0.61661"
       id="path2989-8"
       inkscape:connector-curvature="0" />
    <path
       sodipodi:type="arc"
       style="fill:#ffffff;fill-rule:evenodd;stroke:#f800ff;stroke-width:1px;stroke-linecap:butt;stroke-linejoin:miter;stroke-opacity:1;fill-opacity:1"
       id="path2985-2"
       sodipodi:cx="-482.85715"
       sodipodi:cy="472.36218"
       sodipodi:rx="60"
       sodipodi:ry="60"
       d="m -422.85715,472.36218 a 60,60 0 1 1 -120,0 60,60 0 1 1 120,0 z"
       transform="translate(-557.98081,-469.89999)" />
    <path
       sodipodi:type="arc"
       style="fill:#ffffff;fill-rule:evenodd;stroke:#fd00ff;stroke-width:1px;stroke-linecap:butt;stroke-linejoin:miter;stroke-opacity:1"
       id="path2985-5"
       sodipodi:cx="-482.85715"
       sodipodi:cy="472.36218"
       sodipodi:rx="60"
       sodipodi:ry="60"
       d="m -422.85715,472.36218 a 60,60 0 1 1 -120,0 60,60 0 1 1 120,0 z"
       transform="translate(-75.104497,-471.19456)" />
    <path
       sodipodi:type="arc"
       style="fill:#ffffff;fill-rule:evenodd;stroke:#fb00ff;stroke-width:1px;stroke-linecap:butt;stroke-linejoin:miter;stroke-opacity:1"
       id="path2985-7"
       sodipodi:cx="-482.85715"
       sodipodi:cy="472.36218"
       sodipodi:rx="60"
       sodipodi:ry="60"
       d="m -422.85715,472.36218 a 60,60 0 1 1 -120,0 60,60 0 1 1 120,0 z"
       transform="translate(-317.18994,-471.19456)" />
    <path
       style="fill:none;stroke:#000000;stroke-width:1.183;stroke-linecap:butt;stroke-linejoin:miter;stroke-opacity:1;stroke-miterlimit:4;stroke-dasharray:9.464,9.464;stroke-dashoffset:0"
       d="m -494.52749,-2.7160999 c 156.64352,1.2945746 157.9381,1.2945746 157.9381,1.2945746"
       id="path3954"
       inkscape:connector-curvature="0" />
  </g>
</svg>
